{"help": "https://data.qld.gov.au/api/3/action/help_show?name=datastore_search", "success": true, "result": {"resource_id": "2bbef99e-9974-49b9-a316-57402b00609c", "fields": [{"type": "int4", "id": "_id"}, {"type": "text", "id": "Site"}, {"type": "numeric", "id": "SiteNumber"}, {"type": "numeric", "id": "Seconds"}, {"type": "timestamp", "id": "DateTime"}, {"type": "numeric", "id": "Latitude"}, {"type": "numeric", "id": "Longitude"}, {"type": "numeric", "id": "Hsig"}, {"type": "numeric", "id": "Hmax"}, {"type": "numeric", "id": "Tp"}, {"type": "numeric", "id": "Tz"}, {"type": "numeric", "id": "SST"}, {"type": "numeric", "id": "Direction"}, {"type": "int8", "id": "_full_count"}, {"type": "float4", "id": "rank"}], "q": "cairns", "records": [{"Direction": "57.3718375256674", "Hsig": "0.7868000000000000", "SiteNumber": "9", "Hmax": "1.4500000000000000", "Seconds": "1464638400", "SST": "26.58", "Site": "Cairns", "Longitude": "145.7090500000", "DateTime": "2016-05-31T06:00:00", "_full_count": "334", "Tp": "6.2500000000000000", "Latitude": "-16.7335300000", "Tz": "3.5400000000000000", "rank": 0.0573088, "_id": 3173}, {"Direction": "96.7718359856263", "Hsig": "0.7834000000000000", "SiteNumber": "9", "Hmax": "1.5900000000000000", "Seconds": "1464640200", "SST": "26.58", "Site": "Cairns", "Longitude": "145.7090700000", "DateTime": "2016-05-31T06:30:00", "_full_count": "334", "Tp": "3.7000000000000000", "Latitude": "-16.7335300000", "Tz": "3.4190000000000000", "rank": 0.0573088, "_id": 3174}, {"Direction": "57.3718344455852", "Hsig": "0.8216000000000000", "SiteNumber": "9", "Hmax": "1.3400000000000000", "Seconds": "1464642000", "SST": "26.58", "Site": "Cairns", "Longitude": "145.7090700000", "DateTime": "2016-05-31T07:00:00", "_full_count": "334", "Tp": "5.8800000000000000", "Latitude": "-16.7335400000", "Tz": "3.4480000000000000", "rank": 0.0573088, "_id": 3175}, {"Direction": "48.9718329055441", "Hsig": "0.8701000000000000", "SiteNumber": "9", "Hmax": "1.5000000000000000", "Seconds": "1464643800", "SST": "26.53", "Site": "Cairns", "Longitude": "145.7090500000", "DateTime": "2016-05-31T07:30:00", "_full_count": "334", "Tp": "6.6700000000000000", "Latitude": "-16.7335400000", "Tz": "3.5710000000000000", "rank": 0.0573088, "_id": 3176}, {"Direction": "100.971831365503", "Hsig": "0.8274000000000000", "SiteNumber": "9", "Hmax": "1.3200000000000000", "Seconds": "1464645600", "SST": "26.58", "Site": "Cairns", "Longitude": "145.7090500000", "DateTime": "2016-05-31T08:00:00", "_full_count": "334", "Tp": "4.1700000000000000", "Latitude": "-16.7335500000", "Tz": "3.5400000000000000", "rank": 0.0573088, "_id": 3177}, {"Direction": "51.771829825462", "Hsig": "0.8831000000000000", "SiteNumber": "9", "Hmax": "1.6100000000000000", "Seconds": "1464647400", "SST": "26.58", "Site": "Cairns", "Longitude": "145.7090500000", "DateTime": "2016-05-31T08:30:00", "_full_count": "334", "Tp": "6.6700000000000000", "Latitude": "-16.7335500000", "Tz": "3.6360000000000000", "rank": 0.0573088, "_id": 3178}, {"Direction": "96.771828285421", "Hsig": "0.8865000000000000", "SiteNumber": "9", "Hmax": "1.6900000000000000", "Seconds": "1464649200", "SST": "26.58", "Site": "Cairns", "Longitude": "145.7090500000", "DateTime": "2016-05-31T09:00:00", "_full_count": "334", "Tp": "4.1700000000000000", "Latitude": "-16.7335300000", "Tz": "3.5710000000000000", "rank": 0.0573088, "_id": 3179}, {"Direction": "95.3718267453799", "Hsig": "0.9363000000000000", "SiteNumber": "9", "Hmax": "1.8400000000000000", "Seconds": "1464651000", "SST": "26.58", "Site": "Cairns", "Longitude": "145.7090500000", "DateTime": "2016-05-31T09:30:00", "_full_count": "334", "Tp": "4.3500000000000000", "Latitude": "-16.7335400000", "Tz": "3.6700000000000000", "rank": 0.0573088, "_id": 3180}, {"Direction": "95.3718252053388", "Hsig": "0.9050000000000000", "SiteNumber": "9", "Hmax": "1.5600000000000000", "Seconds": "1464652800", "SST": "26.58", "Site": "Cairns", "Longitude": "145.7090500000", "DateTime": "2016-05-31T10:00:00", "_full_count": "334", "Tp": "4.1700000000000000", "Latitude": "-16.7335400000", "Tz": "3.6700000000000000", "rank": 0.0573088, "_id": 3181}, {"Direction": "102.371823665298", "Hsig": "0.8735000000000000", "SiteNumber": "9", "Hmax": "1.7000000000000000", "Seconds": "1464654600", "SST": "26.63", "Site": "Cairns", "Longitude": "145.7090500000", "DateTime": "2016-05-31T10:30:00", "_full_count": "334", "Tp": "4.1700000000000000", "Latitude": "-16.7335400000", "Tz": "3.6360000000000000", "rank": 0.0573088, "_id": 3182}, {"Direction": "96.7718221252567", "Hsig": "0.8824000000000000", "SiteNumber": "9", "Hmax": "1.4400000000000000", "Seconds": "1464656400", "SST": "26.63", "Site": "Cairns", "Longitude": "145.7090500000", "DateTime": "2016-05-31T11:00:00", "_full_count": "334", "Tp": "4.3500000000000000", "Latitude": "-16.7335400000", "Tz": "3.6360000000000000", "rank": 0.0573088, "_id": 3183}, {"Direction": "89.7718205852156", "Hsig": "0.9165000000000000", "SiteNumber": "9", "Hmax": "1.7600000000000000", "Seconds": "1464658200", "SST": "26.63", "Site": "Cairns", "Longitude": "145.7090100000", "DateTime": "2016-05-31T11:30:00", "_full_count": "334", "Tp": "4.5500000000000000", "Latitude": "-16.7335400000", "Tz": "3.6700000000000000", "rank": 0.0573088, "_id": 3184}, {"Direction": "98.1718190451745", "Hsig": "0.9222000000000000", "SiteNumber": "9", "Hmax": "1.7100000000000000", "Seconds": "1464660000", "SST": "26.63", "Site": "Cairns", "Longitude": "145.7089900000", "DateTime": "2016-05-31T12:00:00", "_full_count": "334", "Tp": "4.1700000000000000", "Latitude": "-16.7335600000", "Tz": "3.7040000000000000", "rank": 0.0573088, "_id": 3185}, {"Direction": "95.3718175051335", "Hsig": "1.0001000000000000", "SiteNumber": "9", "Hmax": "1.9300000000000000", "Seconds": "1464661800", "SST": "26.68", "Site": "Cairns", "Longitude": "145.7089900000", "DateTime": "2016-05-31T12:30:00", "_full_count": "334", "Tp": "3.8500000000000000", "Latitude": "-16.7335700000", "Tz": "3.6360000000000000", "rank": 0.0573088, "_id": 3186}, {"Direction": "95.3718159650924", "Hsig": "0.9918000000000000", "SiteNumber": "9", "Hmax": "1.8300000000000000", "Seconds": "1464663600", "SST": "26.68", "Site": "Cairns", "Longitude": "145.7090100000", "DateTime": "2016-05-31T13:00:00", "_full_count": "334", "Tp": "4.3500000000000000", "Latitude": "-16.7335600000", "Tz": "3.6700000000000000", "rank": 0.0573088, "_id": 3187}, {"Direction": "92.5718144250513", "Hsig": "0.9886000000000000", "SiteNumber": "9", "Hmax": "1.8500000000000000", "Seconds": "1464665400", "SST": "26.68", "Site": "Cairns", "Longitude": "145.7089900000", "DateTime": "2016-05-31T13:30:00", "_full_count": "334", "Tp": "4.0000000000000000", "Latitude": "-16.7335700000", "Tz": "3.7040000000000000", "rank": 0.0573088, "_id": 3188}, {"Direction": "93.9718128850103", "Hsig": "0.9403000000000000", "SiteNumber": "9", "Hmax": "1.5400000000000000", "Seconds": "1464667200", "SST": "26.63", "Site": "Cairns", "Longitude": "145.7089900000", "DateTime": "2016-05-31T14:00:00", "_full_count": "334", "Tp": "4.3500000000000000", "Latitude": "-16.7335800000", "Tz": "3.7380000000000000", "rank": 0.0573088, "_id": 3189}, {"Direction": "40.5718113449692", "Hsig": "0.8965000000000000", "SiteNumber": "9", "Hmax": "1.6200000000000000", "Seconds": "1464669000", "SST": "26.73", "Site": "Cairns", "Longitude": "145.7089900000", "DateTime": "2016-05-31T14:30:00", "_full_count": "334", "Tp": "7.6900000000000000", "Latitude": "-16.7335800000", "Tz": "3.6360000000000000", "rank": 0.0573088, "_id": 3190}, {"Direction": "99.5718098049281", "Hsig": "0.9189000000000000", "SiteNumber": "9", "Hmax": "1.8300000000000000", "Seconds": "1464670800", "SST": "26.73", "Site": "Cairns", "Longitude": "145.7089900000", "DateTime": "2016-05-31T15:00:00", "_full_count": "334", "Tp": "4.1700000000000000", "Latitude": "-16.7335700000", "Tz": "3.6700000000000000", "rank": 0.0573088, "_id": 3191}, {"Direction": "99.5718082648871", "Hsig": "0.8469000000000000", "SiteNumber": "9", "Hmax": "1.4600000000000000", "Seconds": "1464672600", "SST": "26.73", "Site": "Cairns", "Longitude": "145.7090100000", "DateTime": "2016-05-31T15:30:00", "_full_count": "334", "Tp": "4.1700000000000000", "Latitude": "-16.7335800000", "Tz": "3.6360000000000000", "rank": 0.0573088, "_id": 3192}, {"Direction": "100.971806724846", "Hsig": "0.8327000000000000", "SiteNumber": "9", "Hmax": "1.4400000000000000", "Seconds": "1464674400", "SST": "26.73", "Site": "Cairns", "Longitude": "145.7089900000", "DateTime": "2016-05-31T16:00:00", "_full_count": "334", "Tp": "4.0000000000000000", "Latitude": "-16.7335900000", "Tz": "3.5090000000000000", "rank": 0.0573088, "_id": 3193}, {"Direction": "98.1718051848049", "Hsig": "0.8520000000000000", "SiteNumber": "9", "Hmax": "1.3200000000000000", "Seconds": "1464676200", "SST": "26.73", "Site": "Cairns", "Longitude": "145.7089900000", "DateTime": "2016-05-31T16:30:00", "_full_count": "334", "Tp": "4.0000000000000000", "Latitude": "-16.7335900000", "Tz": "3.5090000000000000", "rank": 0.0573088, "_id": 3194}, {"Direction": "105.171803644764", "Hsig": "0.8564000000000000", "SiteNumber": "9", "Hmax": "1.4800000000000000", "Seconds": "1464678000", "SST": "26.73", "Site": "Cairns", "Longitude": "145.7089900000", "DateTime": "2016-05-31T17:00:00", "_full_count": "334", "Tp": "3.7000000000000000", "Latitude": "-16.7335900000", "Tz": "3.5090000000000000", "rank": 0.0573088, "_id": 3195}, {"Direction": "48.9718021047228", "Hsig": "0.8784000000000000", "SiteNumber": "9", "Hmax": "1.3500000000000000", "Seconds": "1464679800", "SST": "26.73", "Site": "Cairns", "Longitude": "145.7089900000", "DateTime": "2016-05-31T17:30:00", "_full_count": "334", "Tp": "7.1400000000000000", "Latitude": "-16.7335800000", "Tz": "3.4780000000000000", "rank": 0.0573088, "_id": 3196}, {"Direction": "55.9718005646817", "Hsig": "0.8951000000000000", "SiteNumber": "9", "Hmax": "1.7500000000000000", "Seconds": "1464681600", "SST": "26.73", "Site": "Cairns", "Longitude": "145.7089900000", "DateTime": "2016-05-31T18:00:00", "_full_count": "334", "Tp": "7.1400000000000000", "Latitude": "-16.7335700000", "Tz": "3.6040000000000000", "rank": 0.0573088, "_id": 3197}, {"Direction": "46.1717990246407", "Hsig": "0.9107000000000000", "SiteNumber": "9", "Hmax": "1.5800000000000000", "Seconds": "1464683400", "SST": "26.73", "Site": "Cairns", "Longitude": "145.7090100000", "DateTime": "2016-05-31T18:30:00", "_full_count": "334", "Tp": "7.6900000000000000", "Latitude": "-16.7335500000", "Tz": "3.6360000000000000", "rank": 0.0573088, "_id": 3198}, {"Direction": "95.3717974845996", "Hsig": "0.9589000000000000", "SiteNumber": "9", "Hmax": "1.6100000000000000", "Seconds": "1464685200", "SST": "26.68", "Site": "Cairns", "Longitude": "145.7090300000", "DateTime": "2016-05-31T19:00:00", "_full_count": "334", "Tp": "3.8500000000000000", "Latitude": "-16.7335500000", "Tz": "3.6040000000000000", "rank": 0.0573088, "_id": 3199}, {"Direction": "92.5717959445585", "Hsig": "0.9701000000000000", "SiteNumber": "9", "Hmax": "1.5900000000000000", "Seconds": "1464687000", "SST": "26.68", "Site": "Cairns", "Longitude": "145.7090300000", "DateTime": "2016-05-31T19:30:00", "_full_count": "334", "Tp": "4.3500000000000000", "Latitude": "-16.7335600000", "Tz": "3.7040000000000000", "rank": 0.0573088, "_id": 3200}, {"Direction": "96.7717944045175", "Hsig": "0.9605000000000000", "SiteNumber": "9", "Hmax": "1.6600000000000000", "Seconds": "1464688800", "SST": "26.68", "Site": "Cairns", "Longitude": "145.7090500000", "DateTime": "2016-05-31T20:00:00", "_full_count": "334", "Tp": "4.5500000000000000", "Latitude": "-16.7335300000", "Tz": "3.7380000000000000", "rank": 0.0573088, "_id": 3201}, {"Direction": "106.571792864476", "Hsig": "1.0518000000000000", "SiteNumber": "9", "Hmax": "1.7000000000000000", "Seconds": "1464690600", "SST": "26.68", "Site": "Cairns", "Longitude": "145.7090300000", "DateTime": "2016-05-31T20:30:00", "_full_count": "334", "Tp": "4.1700000000000000", "Latitude": "-16.7335400000", "Tz": "3.7040000000000000", "rank": 0.0573088, "_id": 3202}, {"Direction": "98.1717913244353", "Hsig": "0.9909000000000000", "SiteNumber": "9", "Hmax": "1.6800000000000000", "Seconds": "1464692400", "SST": "26.68", "Site": "Cairns", "Longitude": "145.7090500000", "DateTime": "2016-05-31T21:00:00", "_full_count": "334", "Tp": "4.3500000000000000", "Latitude": "-16.7335400000", "Tz": "3.7740000000000000", "rank": 0.0573088, "_id": 3203}, {"Direction": "105.171789784394", "Hsig": "0.9643000000000000", "SiteNumber": "9", "Hmax": "1.9100000000000000", "Seconds": "1464694200", "SST": "26.63", "Site": "Cairns", "Longitude": "145.7090500000", "DateTime": "2016-05-31T21:30:00", "_full_count": "334", "Tp": "4.0000000000000000", "Latitude": "-16.7335400000", "Tz": "3.7040000000000000", "rank": 0.0573088, "_id": 3204}, {"Direction": "96.7717882443532", "Hsig": "0.9445000000000000", "SiteNumber": "9", "Hmax": "1.4400000000000000", "Seconds": "1464696000", "SST": "26.63", "Site": "Cairns", "Longitude": "145.7090500000", "DateTime": "2016-05-31T22:00:00", "_full_count": "334", "Tp": "4.3500000000000000", "Latitude": "-16.7335500000", "Tz": "3.7040000000000000", "rank": 0.0573088, "_id": 3205}, {"Direction": "-99.9", "Hsig": "0.9269000000000000", "SiteNumber": "9", "Hmax": "1.4400000000000000", "Seconds": "1464697800", "SST": "-99.9", "Site": "Cairns", "Longitude": "145.7090700000", "DateTime": "2016-05-31T22:30:00", "_full_count": "334", "Tp": "-99.9", "Latitude": "-16.7335400000", "Tz": "-99.9", "rank": 0.0573088, "_id": 3206}], "_links": {"start": "/api/action/datastore_search", "prev": "/api/action/datastore_search?offset=200", "next": "/api/action/datastore_search?offset=400"}, "offset": 300, "total": 334}}